<?xml version="1.0" encoding="utf-8"?>
<!-- Generator: Adobe Illustrator 16.0.0, SVG Export Plug-In . SVG Version: 6.00 Build 0)  -->
<!DOCTYPE svg PUBLIC "-//W3C//DTD SVG 1.1//EN" "http://www.w3.org/Graphics/SVG/1.1/DTD/svg11.dtd">
<svg version="1.1" id="Layer_1" xmlns="http://www.w3.org/2000/svg" xmlns:xlink="http://www.w3.org/1999/xlink" x="0px" y="0px"
	 width="60px" height="60px" viewBox="0 0 60 60" enable-background="new 0 0 60 60" xml:space="preserve">
<g>
	<path fill="#C6C7C8" d="M41.291,10.632h-2.009V7.985h-3.738v2.646H24.456V7.985h-3.739v2.646h-2.009
		c-5.294,0-9.608,4.313-9.608,9.608v22.167c0,5.294,4.314,9.607,9.608,9.607h22.583c5.294,0,9.609-4.313,9.609-9.607V20.24
		C50.9,14.945,46.585,10.632,41.291,10.632z M47.159,42.408c0,3.234-2.632,5.868-5.868,5.868H18.708
		c-3.235,0-5.867-2.633-5.867-5.868V20.24c0-3.236,2.632-5.869,5.867-5.869h2.009v5.22h3.739v-5.22h11.088v5.22h3.738v-5.22h2.009
		c3.236,0,5.868,2.633,5.868,5.869V42.408z"/>
	<rect x="17.563" y="23.358" fill="#C6C7C8" width="3.741" height="3.563"/>
	<rect x="24.534" y="23.358" fill="#C6C7C8" width="3.738" height="3.563"/>
	<rect x="31.508" y="23.358" fill="#C6C7C8" width="3.739" height="3.563"/>
	<rect x="38.482" y="23.358" fill="#C6C7C8" width="3.741" height="3.563"/>
	<rect x="17.563" y="31.291" fill="#C6C7C8" width="3.741" height="3.563"/>
	<rect x="24.534" y="31.291" fill="#C6C7C8" width="3.738" height="3.563"/>
	<rect x="31.508" y="31.291" fill="#C6C7C8" width="3.739" height="3.563"/>
	<rect x="38.482" y="31.291" fill="#C6C7C8" width="3.741" height="3.563"/>
	<rect x="17.563" y="39.232" fill="#C6C7C8" width="3.741" height="3.563"/>
	<rect x="24.534" y="39.232" fill="#C6C7C8" width="3.738" height="3.563"/>
	<rect x="31.508" y="39.232" fill="#C6C7C8" width="3.739" height="3.563"/>
	<rect x="38.482" y="39.232" fill="#C6C7C8" width="3.741" height="3.563"/>
</g>
</svg>
