<?xml version="1.0" encoding="utf-8"?>
<!-- Generator: Adobe Illustrator 16.0.0, SVG Export Plug-In . SVG Version: 6.00 Build 0)  -->
<!DOCTYPE svg PUBLIC "-//W3C//DTD SVG 1.1//EN" "http://www.w3.org/Graphics/SVG/1.1/DTD/svg11.dtd">
<svg version="1.1" id="Layer_1" xmlns="http://www.w3.org/2000/svg" xmlns:xlink="http://www.w3.org/1999/xlink" x="0px" y="0px"
	 width="60px" height="60px" viewBox="0 0 60 60" enable-background="new 0 0 60 60" xml:space="preserve">
<g>
	<path fill="#385EE3" d="M29.999,8.606c-11.797,0-21.392,9.599-21.392,21.396c0,11.796,9.595,21.392,21.392,21.392
		c11.796,0,21.394-9.596,21.394-21.392C51.393,18.205,41.795,8.606,29.999,8.606z M29.999,48.996
		c-10.474,0-18.993-8.521-18.993-18.994c0-10.476,8.52-18.997,18.993-18.997c10.473,0,18.995,8.521,18.995,18.997
		C48.994,40.476,40.472,48.996,29.999,48.996z"/>
	<polygon fill="#385EE3" points="31.198,20.789 28.8,20.789 28.8,28.799 20.793,28.799 20.793,31.196 28.8,31.196 28.8,39.206 
		31.198,39.206 31.198,31.196 39.207,31.196 39.207,28.799 31.198,28.799 	"/>
</g>
</svg>
