<?xml version="1.0" encoding="UTF-8" standalone="no"?>
<svg width="201px" height="50px" viewBox="0 0 201 50" version="1.1" xmlns="http://www.w3.org/2000/svg" xmlns:xlink="http://www.w3.org/1999/xlink">
    <!-- Generator: Sketch 3.8.3 (29802) - http://www.bohemiancoding.com/sketch -->
    <title>pando-logo-top</title>
    <desc>Created with Sketch.</desc>
    <defs></defs>
    <g id="Page-1" stroke="none" stroke-width="1" fill="none" fill-rule="evenodd">
        <g id="pando-logo-top" fill="#0058F9">
            <g id="logo">
                <g id="logo-tm" transform="translate(60.000000, 0.000000)">
                    <path d="M8.25675676,14.96 L8.25675676,14.96 C9.65405405,12.9485714 12.0675676,12.0685714 14.4810811,12.0685714 C20.5783784,12.0685714 24.7702703,17.0971429 24.7702703,22.88 C24.7702703,28.6628571 20.5783784,33.5657143 14.4810811,33.5657143 C12.0675676,33.5657143 9.65405405,32.6857143 8.12972973,30.9257143 L8.12972973,42.9942857 L0.889189189,42.9942857 L0.889189189,12.5714286 L8.12972973,12.5714286 L8.12972973,14.96 L8.25675676,14.96 Z M8.12972973,22.7542857 C8.12972973,25.2685714 9.78108108,27.28 12.8297297,27.28 C15.7513514,27.28 17.5297297,25.2685714 17.5297297,22.7542857 C17.5297297,20.24 15.8783784,18.2285714 12.8297297,18.2285714 C9.78108108,18.2285714 8.12972973,20.24 8.12972973,22.7542857 L8.12972973,22.7542857 Z" id="Shape"></path>
                    <path d="M52.7162162,32.8114286 L45.4756757,32.8114286 L45.4756757,30.5485714 L45.3486486,30.5485714 C44.0783784,32.56 41.5378378,33.44 39.1243243,33.44 C33.027027,33.44 28.8351351,28.4114286 28.8351351,22.6285714 C28.8351351,16.8457143 33.027027,11.8171429 39.1243243,11.8171429 C41.4108108,11.8171429 43.9513514,12.6971429 45.4756757,14.4571429 L45.4756757,12.4457143 L52.7162162,12.4457143 L52.7162162,32.8114286 L52.7162162,32.8114286 Z M36.4567568,22.7542857 C36.4567568,25.2685714 38.1081081,27.28 41.1567568,27.28 C44.0783784,27.28 45.8567568,25.2685714 45.8567568,22.7542857 C45.8567568,20.24 44.2054054,18.2285714 41.1567568,18.2285714 C38.1081081,18.2285714 36.4567568,20.24 36.4567568,22.7542857 L36.4567568,22.7542857 Z" id="Shape"></path>
                    <path d="M66.8162162,15.2114286 L66.8162162,15.2114286 C68.5945946,12.8228571 70.627027,11.9428571 73.4216216,11.9428571 C78.8837838,11.9428571 81.0432432,15.3371429 81.0432432,20.3657143 L81.0432432,32.8114286 L73.8027027,32.8114286 L73.8027027,23.0057143 C73.8027027,21.12 74.0567568,17.7257143 70.5,17.7257143 C67.5783784,17.7257143 66.6891892,19.8628571 66.6891892,22.3771429 L66.6891892,32.8114286 L59.4486486,32.8114286 L59.4486486,12.5714286 L66.6891892,12.5714286 L66.6891892,15.2114286 L66.8162162,15.2114286 Z" id="Shape"></path>
                    <path d="M103.272973,30.5485714 L103.272973,30.5485714 C101.875676,32.56 99.4621622,33.44 97.0486486,33.44 C90.9513514,33.44 86.7594595,28.4114286 86.7594595,22.6285714 C86.7594595,16.8457143 90.9513514,11.8171429 97.0486486,11.8171429 C99.3351351,11.8171429 101.875676,12.6971429 103.4,14.4571429 L103.4,0 L110.640541,0 L110.640541,32.6857143 L103.4,32.6857143 L103.4,30.5485714 L103.272973,30.5485714 Z M94.127027,22.7542857 C94.127027,25.2685714 95.7783784,27.28 98.827027,27.28 C101.748649,27.28 103.527027,25.2685714 103.527027,22.7542857 C103.527027,20.24 101.875676,18.2285714 98.827027,18.2285714 C95.9054054,18.2285714 94.127027,20.24 94.127027,22.7542857 L94.127027,22.7542857 Z" id="Shape"></path>
                    <path d="M140.110811,22.7542857 C140.110811,29.6685714 134.394595,33.5657143 127.789189,33.5657143 C121.310811,33.5657143 115.467568,29.6685714 115.467568,22.7542857 C115.467568,15.84 121.183784,11.9428571 127.789189,11.9428571 C134.394595,11.9428571 140.110811,15.84 140.110811,22.7542857 L140.110811,22.7542857 Z M123.089189,22.7542857 C123.089189,25.2685714 124.740541,27.28 127.789189,27.28 C130.710811,27.28 132.489189,25.2685714 132.489189,22.7542857 C132.489189,20.24 130.837838,18.2285714 127.789189,18.2285714 C124.867568,18.2285714 123.089189,20.24 123.089189,22.7542857 L123.089189,22.7542857 Z" id="Shape"></path>
                </g>
                <g id="logo-blue" transform="translate(0.000000, 1.000000)">
                    <path d="M12.529575,28.8673864 L7.703325,27.1060227 L7.703325,17.6367045 C11.9547,19.1776136 15.55245,20.7196591 15.661575,25.1855682 C15.7707,29.6514773 12.529575,28.8673864 12.529575,28.8673864" id="Fill-6"></path>
                    <path d="M8.1397125,35.0336364 L8.1397125,34.52 L14.8717125,37.0893182 C26.4029625,41.5631818 26.1048375,29.9620455 26.1048375,29.9620455 C27.0858375,17.0381818 15.6783375,12.3836364 15.6783375,12.3836364 L0.0532125,6.75863636 L0.3187125,6.58363636 L15.7705875,12.1313636 C15.7705875,12.1313636 27.3254625,16.8790909 26.3444625,29.92 C26.3444625,29.92 26.5188375,42.1052273 14.9887125,37.5904545 L8.8979625,35.3370455 L8.1397125,35.0336364" id="Fill-8"></path>
                    <path d="M8.1397125,35.0336364 L8.1397125,49.0234091 L17.4907125,42.3006818 L17.4907125,38.2506818 C17.4907125,38.2506818 16.3330875,38.1677273 8.1397125,35.0336364" id="Fill-10"></path>
                    <path d="M23.20065,37.2047727 C26.275275,34.8445455 26.192025,29.7002273 26.192025,29.7002273 C27.173025,16.6581818 15.61815,12.1309091 15.61815,12.1309091 L0.2484,6.62522727 L10.0584,0.79 L11.4534,1.27977273 C15.162525,2.49795455 25.490025,6.00931818 25.490025,6.00931818 C25.490025,6.00931818 35.228025,9.165 35.808525,20.1763636 C35.808525,20.1763636 36.5724,25.5343182 33.556275,29.4627273 L23.21415,37.4979545 L23.20065,37.2047727 Z" id="Fill-12"></path>
                </g>
            </g>
        </g>
    </g>
</svg>